…
rf_best
```

    ## # A tibble: 1 x 3
    ##    mtry min_n .config              
    ##   <int> <int> <chr>                
    ## 1     1    17 Preprocessor1_Model18

``` r
rf_res %>% 
  collect_predictions()
```

    ## # A tibble: 545,600 x 8
    ##    id         .pred_0 .pred_1  .row  mtry min_n right_wing .config              
    ##    <chr>        <dbl>   <dbl> <int> <int> <int> <fct>      <chr>                
    ##  1 validation   0.975 0.0253      1     6    30 0          Preprocessor1_Model01
    ##  2 validation   0.981 0.0188      3     6    30 0          Preprocessor1_Model01
    ##  3 validation   0.967 0.0334      5     6    30 0          Preprocessor1_Model01
    ##  4 validation   0.979 0.0205      8     6    30 0          Preprocessor1_Model01
    ##  5 validation   0.982 0.0178     13     6    30 0          Preprocessor1_Model01
    ##  6 validation   0.945 0.0554     23     6    30 0          Preprocessor1_Model01
    ##  7 validation   0.993 0.00737    24     6    30 0          Preprocessor1_Model01
    ##  8 validation   0.986 0.0140     29     6    30 0          Preprocessor1_Model01
    ##  9 validation   0.956 0.0439     30     6    30 0          Preprocessor1_Model01
    ## 10 validation   0.992 0.00824    31     6    30 0          Preprocessor1_Model01
    ## # ... with 545,590 more rows
…
